{
  "$schema": "http://solettaproject.github.io/soletta/schemas/node-type-genspec.schema",
  "name": "converter",
  "meta": {
    "author": "Intel Corporation",
    "license": "Apache-2.0",
    "version": "1"
  },
  "types": [
    {
      "category": "converter",
      "description": "Receives a boolean packet and converts it to a floating point one.",
      "in_ports": [
        {
          "data_type": "boolean",
          "description": "Where to receive the boolean value to be converted.",
          "methods": {
            "process": "boolean_to_drange_convert"
          },
          "name": "IN"
        },
        {
          "data_type": "float",
          "description": "DRange value of output when input is false.",
          "methods": {
            "process": "drange_min_value_set"
          },
          "name": "FALSE_VALUE"
        },
        {
          "data_type": "float",
          "description": "DRange value of output when input is true.",
          "methods": {
            "process": "drange_max_value_set"
          },
          "name": "TRUE_VALUE"
        }
      ],
      "methods": {
        "open": "boolean_to_drange_open"
      },
      "name": "converter/boolean-to-float",
      "options": {
        "members": [
          {
            "data_type": "float",
            "default": 0,
            "description": "Float value of output when input is false.",
            "name": "false_value"
          },
          {
            "data_type": "float",
            "default": 1,
            "description": "Float value of output when input is true.",
            "name": "true_value"
          }
        ],
        "version": 1
      },
      "out_ports": [
        {
          "data_type": "float",
          "description": "Float with value set on options or via value_set ports.",
          "name": "OUT"
        }
      ],
      "private_data_type": "sol_drange_spec",
      "url": "http://solettaproject.org/doc/latest/node_types/converter/boolean-to-drange.html"
    },
    {
      "category": "converter",
      "description": "Receives a boolean packet and converts it to a byte one.",
      "in_ports": [
        {
          "data_type": "boolean",
          "description": "Where to receive the boolean value to be converted.",
          "methods": {
            "process": "boolean_to_byte_convert"
          },
          "name": "IN"
        },
        {
          "data_type": "byte",
          "description": "Byte value of output when input is false.",
          "methods": {
            "process": "byte_min_value_set"
          },
          "name": "FALSE_VALUE"
        },
        {
          "data_type": "byte",
          "description": "Byte value of output when input is true.",
          "methods": {
            "process": "byte_max_value_set"
          },
          "name": "TRUE_VALUE"
        }
      ],
      "methods": {
        "open": "boolean_to_byte_open"
      },
      "name": "converter/boolean-to-byte",
      "options": {
        "members": [
          {
            "data_type": "byte",
            "default": 0,
            "description": "Byte value of output when input is false.",
            "name": "false_value"
          },
          {
            "data_type": "byte",
            "default": 1,
            "description": "Byte value of output when input is true.",
            "name": "true_value"
          }
        ],
        "version": 1
      },
      "out_ports": [
        {
          "data_type": "byte",
          "description": "Byte with value set on options or via value_set ports.",
          "name": "OUT"
        }
      ],
      "private_data_type": "sol_converter_byte",
      "url": "http://solettaproject.org/doc/latest/node_types/converter/boolean-to-byte.html"
    },
    {
      "category": "converter",
      "description": "Receives a boolean packet and convert it to empty.",
      "in_ports": [
        {
          "data_type": "boolean",
          "description": "If received boolean is true generates a pulse.",
          "methods": {
            "process": "pulse_if_true"
          },
          "name": "PULSE_IF_TRUE"
        },
        {
          "data_type": "boolean",
          "description": "If received boolean is false generates a pulse.",
          "methods": {
            "process": "pulse_if_false"
          },
          "name": "PULSE_IF_FALSE"
        }
      ],
      "name": "converter/boolean-to-empty",
      "out_ports": [
        {
          "data_type": "empty",
          "description": "Sends a pulse if boolean values received on each port match expected value.",
          "name": "OUT"
        }
      ],
      "url": "http://solettaproject.org/doc/latest/node_types/converter/boolean-to-empty.html"
    },
    {
      "category": "converter",
      "description": "Receives a boolean packet and converts it to an integer one.",
      "in_ports": [
        {
          "data_type": "boolean",
          "description": "Where to receive the boolean value to be converted.",
          "methods": {
            "process": "boolean_to_irange_convert"
          },
          "name": "IN"
        },
        {
          "data_type": "int",
          "description": "IRange value of output when input is false.",
          "methods": {
            "process": "irange_min_value_set"
          },
          "name": "FALSE_VALUE"
        },
        {
          "data_type": "int",
          "description": "IRange value of output when input is true.",
          "methods": {
            "process": "irange_max_value_set"
          },
          "name": "TRUE_VALUE"
        }
      ],
      "methods": {
        "open": "boolean_to_irange_open"
      },
      "name": "converter/boolean-to-int",
      "options": {
        "members": [
          {
            "data_type": "int",
            "default": 0,
            "description": "IRange value of output when input is false.",
            "name": "false_value"
          },
          {
            "data_type": "int",
            "default": 1,
            "description": "IRange value of output when input is true.",
            "name": "true_value"
          }
        ],
        "version": 1
      },
      "out_ports": [
        {
          "data_type": "int",
          "description": "IRange with value set on options or via value_set ports.",
          "name": "OUT"
        }
      ],
      "private_data_type": "sol_irange",
      "url": "http://solettaproject.org/doc/latest/node_types/converter/boolean-to-irange.html"
    },
    {
      "category": "converter",
      "description": "Receives a boolean packet and converts it to a string one.",
      "in_ports": [
        {
          "data_type": "boolean",
          "description": "Where to receive the boolean value to be converted.",
          "methods": {
            "process": "boolean_to_string_convert"
          },
          "name": "IN"
        },
        {
          "data_type": "string",
          "description": "String to be sent on output when input is false.",
          "methods": {
            "process": "string_false_value_set"
          },
          "name": "FALSE_VALUE"
        },
        {
          "data_type": "string",
          "description": "String to be sent on output when input is true.",
          "methods": {
            "process": "string_true_value_set"
          },
          "name": "TRUE_VALUE"
        }
      ],
      "methods": {
        "close": "boolean_to_string_close",
        "open": "boolean_to_string_open"
      },
      "name": "converter/boolean-to-string",
      "options": {
        "members": [
          {
            "data_type": "string",
            "default": "False",
            "description": "String sent when input is false.",
            "name": "false_value"
          },
          {
            "data_type": "string",
            "default": "True",
            "description": "String sent when input is true.",
            "name": "true_value"
          }
        ],
        "version": 1
      },
      "out_ports": [
        {
          "data_type": "string",
          "description": "Sends the string defined by the option 'true_value', if input is true, or by the option 'false_value', if input is false.",
          "name": "OUT"
        }
      ],
      "private_data_type": "sol_converter_boolean_string",
      "url": "http://solettaproject.org/doc/latest/node_types/converter/boolean-to-string.html"
    },
    {
      "category": "converter",
      "description": "Receives byte packet and converts it to a binary representation in the output array port.",
      "in_ports": [
        {
          "data_type": "byte",
          "description": "Where to receive the byte value to be converted.",
          "methods": {
            "process": "byte_to_bits_convert"
          },
          "name": "IN",
          "required": true
        }
      ],
      "name": "converter/byte-to-bits",
      "out_ports": [
        {
          "data_type": "boolean",
          "description": "Byte turned to bits, index 0 is the least significant, 7 the most",
          "name": "OUT[8]"
        }
      ],
      "private_data_type": "sol_converter_bits",
      "url": "http://solettaproject.org/doc/latest/node_types/converter/byte-to-bits.html"
    },
    {
      "category": "converter",
      "description": "Receives a byte packet and converts it to a boolean one.",
      "in_ports": [
        {
          "data_type": "byte",
          "description": "Where to receive the byte value to be converted.",
          "methods": {
            "process": "byte_to_boolean_convert"
          },
          "name": "IN"
        },
        {
          "data_type": "byte",
          "description": "Defines maximum value of input to set output as true.",
          "methods": {
            "process": "byte_max_value_set"
          },
          "name": "TRUE_MAX"
        },
        {
          "data_type": "byte",
          "description": "Defines minimum value of input to set output as true.",
          "methods": {
            "process": "byte_min_value_set"
          },
          "name": "TRUE_MIN"
        }
      ],
      "methods": {
        "open": "byte_to_boolean_open"
      },
      "name": "converter/byte-to-boolean",
      "options": {
        "members": [
          {
            "data_type": "byte",
            "default": 255,
            "description": "Defines maximum value of input to set output as true.",
            "name": "true_max"
          },
          {
            "data_type": "byte",
            "default": 1,
            "description": "Defines minimum value of input to set output as true.",
            "name": "true_min"
          }
        ],
        "version": 1
      },
      "out_ports": [
        {
          "data_type": "boolean",
          "description": "Sends true if the input packet value is in the range defined by 'min' and 'max' values or false, otherwise.",
          "name": "OUT"
        }
      ],
      "private_data_type": "sol_converter_byte",
      "url": "http://solettaproject.org/doc/latest/node_types/converter/byte-to-boolean.html"
    },
    {
      "category": "converter",
      "description": "Receives a byte packet and converts it to a floating point one.",
      "in_ports": [
        {
          "data_type": "byte",
          "description": "Where to receive the byte value to be converted.",
          "methods": {
            "process": "byte_to_drange_convert"
          },
          "name": "IN"
        }
      ],
      "name": "converter/byte-to-float",
      "out_ports": [
        {
          "data_type": "float",
          "description": "Byte converted to float.",
          "name": "OUT"
        }
      ],
      "url": "http://solettaproject.org/doc/latest/node_types/converter/byte-to-drange.html"
    },
    {
      "category": "converter",
      "description": "Receives a byte packet and convert it to empty.",
      "in_ports": [
        {
          "data_type": "byte",
          "description": "Where to receive the byte value to be converted.",
          "methods": {
            "process": "byte_to_empty_convert"
          },
          "name": "IN"
        },
        {
          "data_type": "byte",
          "description": "Byte maximum range value that generates a pulse.",
          "methods": {
            "process": "empty_byte_max_value_set"
          },
          "name": "RANGE_MAX"
        },
        {
          "data_type": "byte",
          "description": "Byte minimum range value that generates a pulse.",
          "methods": {
            "process": "empty_byte_min_value_set"
          },
          "name": "RANGE_MIN"
        }
      ],
      "methods": {
        "open": "byte_to_empty_open"
      },
      "name": "converter/byte-to-empty",
      "options": {
        "members": [
          {
            "data_type": "byte",
            "default": 255,
            "description": "Byte maximum value that generates a pulse.",
            "name": "range_max"
          },
          {
            "data_type": "byte",
            "default": 1,
            "description": "Byte minimum value that generates a pulse.",
            "name": "range_min"
          }
        ],
        "version": 1
      },
      "out_ports": [
        {
          "data_type": "empty",
          "description": "Sends an empty packet when the input packet's value is in the range defined by 'min' and 'max' values.",
          "name": "OUT"
        }
      ],
      "private_data_type": "sol_converter_byte",
      "url": "http://solettaproject.org/doc/latest/node_types/converter/byte-to-empty.html"
    },
    {
      "category": "converter",
      "description": "Receives a byte packet and converts it to an integer one.",
      "in_ports": [
        {
          "data_type": "byte",
          "description": "Where to receive the byte value to be converted.",
          "methods": {
            "process": "byte_to_irange_convert"
          },
          "name": "IN"
        }
      ],
      "name": "converter/byte-to-int",
      "out_ports": [
        {
          "data_type": "int",
          "description": "Byte converted to int.",
          "name": "OUT"
        }
      ],
      "url": "http://solettaproject.org/doc/latest/node_types/converter/byte-to-irange.html"
    },
    {
      "category": "converter",
      "description": "Receives byte packets and convert to RGB.",
      "in_ports": [
        {
          "data_type": "byte",
          "description": "Byte value for red component.",
          "methods": {
            "process": "byte_to_rgb_convert"
          },
          "name": "RED"
        },
        {
          "data_type": "byte",
          "description": "Byte value for green component.",
          "methods": {
            "process": "byte_to_rgb_convert"
          },
          "name": "GREEN"
        },
        {
          "data_type": "byte",
          "description": "Byte value for blue component.",
          "methods": {
            "process": "byte_to_rgb_convert"
          },
          "name": "BLUE"
        }
      ],
      "methods": {
        "open": "byte_to_rgb_open"
      },
      "name": "converter/byte-to-rgb",
      "out_ports": [
        {
          "data_type": "rgb",
          "description": "Bytes converted to RGB.",
          "name": "OUT"
        }
      ],
      "private_data_type": "sol_converter_rgb",
      "url": "http://solettaproject.org/doc/latest/node_types/converter/byte-to-rgb.html"
    },
    {
      "category": "converter",
      "description": "Receives byte packets and convert to direction vector",
      "in_ports": [
        {
          "data_type": "byte",
          "description": "Byte value for x component.",
          "methods": {
            "process": "byte_to_direction_vector_convert"
          },
          "name": "X"
        },
        {
          "data_type": "byte",
          "description": "Byte value for y component.",
          "methods": {
            "process": "byte_to_direction_vector_convert"
          },
          "name": "Y"
        },
        {
          "data_type": "byte",
          "description": "Byte value for z component.",
          "methods": {
            "process": "byte_to_direction_vector_convert"
          },
          "name": "Z"
        }
      ],
      "methods": {
        "open": "byte_to_direction_vector_open"
      },
      "name": "converter/byte-to-direction-vector",
      "out_ports": [
        {
          "data_type": "direction-vector",
          "description": "Bytes converted to direction vector.",
          "name": "OUT"
        }
      ],
      "private_data_type": "sol_converter_direction_vector",
      "url": "http://solettaproject.org/doc/latest/node_types/converter/byte-to-direction-vector.html"
    },
    {
      "category": "converter",
      "description": "Receives a byte packet and converts it to a string one.",
      "in_ports": [
        {
          "data_type": "byte",
          "description": "Where to receive the byte value to be converted.",
          "methods": {
            "process": "byte_to_string_convert"
          },
          "name": "IN"
        }
      ],
      "name": "converter/byte-to-string",
      "out_ports": [
        {
          "data_type": "string",
          "description": "Byte converted to string, prefixed with '0x', as 0x3e.",
          "name": "OUT"
        }
      ],
      "url": "http://solettaproject.org/doc/latest/node_types/converter/byte-to-string.html"
    },
    {
      "category": "converter",
      "description": "Receives an float packet and converts it to a boolean one.",
      "in_ports": [
        {
          "data_type": "float",
          "description": "Where to receive the float value to be converted.",
          "methods": {
            "process": "drange_to_boolean_convert"
          },
          "name": "IN"
        },
        {
          "data_type": "float",
          "description": "Defines minimum and maximum values of input to set output as true.",
          "methods": {
            "process": "drange_true_range_set"
          },
          "name": "TRUE_RANGE"
        }
      ],
      "methods": {
        "open": "drange_to_boolean_open"
      },
      "name": "converter/float-to-boolean",
      "options": {
        "members": [
          {
            "data_type": "drange-spec",
            "default": {
              "max": 255,
              "min": 1
            },
            "description": "Defines minimum and maximum values of input to set output as true.",
            "name": "true_range"
          }
        ],
        "version": 1
      },
      "out_ports": [
        {
          "data_type": "boolean",
          "description": "Sends true if the input packet value is in the range defined by 'min' and 'max' values or false, otherwise.",
          "name": "OUT"
        }
      ],
      "private_data_type": "sol_drange",
      "url": "http://solettaproject.org/doc/latest/node_types/converter/drange-to-boolean.html"
    },
    {
      "category": "converter",
      "description": "Receives a float packet and converts it to a byte one.",
      "in_ports": [
        {
          "data_type": "float",
          "description": "Where to receive the float value to be converted.",
          "methods": {
            "process": "drange_to_byte_convert"
          },
          "name": "IN"
        }
      ],
      "name": "converter/float-to-byte",
      "out_ports": [
        {
          "data_type": "byte",
          "description": "Float converted to byte. If float was greater than 255 or less than 0 the converted value will be at these limits.",
          "name": "OUT"
        }
      ],
      "url": "http://solettaproject.org/doc/latest/node_types/converter/drange-to-byte.html"
    },
    {
      "category": "converter",
      "description": "Receives a float packet and convert it to empty.",
      "in_ports": [
        {
          "data_type": "float",
          "description": "Where to receive the float value to be converted.",
          "methods": {
            "process": "drange_to_empty_convert"
          },
          "name": "IN"
        },
        {
          "data_type": "float",
          "description": "Float range that generates a pulse.",
          "methods": {
            "process": "empty_drange_value_set"
          },
          "name": "RANGE"
        }
      ],
      "methods": {
        "open": "drange_to_empty_open"
      },
      "name": "converter/float-to-empty",
      "options": {
        "members": [
          {
            "data_type": "drange-spec",
            "default": {
              "max": 255,
              "min": 1
            },
            "description": "Float range that generates a pulse.",
            "name": "range"
          }
        ],
        "version": 1
      },
      "out_ports": [
        {
          "data_type": "empty",
          "description": "Sends an empty packet when the input packet value is in the range defined by 'min' and 'max' values.",
          "name": "OUT"
        }
      ],
      "private_data_type": "sol_drange_spec",
      "url": "http://solettaproject.org/doc/latest/node_types/converter/drange-to-empty.html"
    },
    {
      "category": "converter",
      "description": "Receives a float packet and converts it to an integer one.",
      "in_ports": [
        {
          "data_type": "float",
          "description": "Where to receive the float value to be converted.",
          "methods": {
            "process": "drange_to_irange_convert"
          },
          "name": "IN"
        }
      ],
      "name": "converter/float-to-int",
      "out_ports": [
        {
          "data_type": "int",
          "description": "Float converted to int. Value, min, max and step are converted.",
          "name": "OUT"
        }
      ],
      "url": "http://solettaproject.org/doc/latest/node_types/converter/drange-to-irange.html"
    },
    {
      "category": "converter",
      "description": "Receives float packets and convert to RGB.",
      "in_ports": [
        {
          "data_type": "float",
          "description": "Float value for red component.",
          "methods": {
            "process": "drange_to_rgb_convert"
          },
          "name": "RED"
        },
        {
          "data_type": "float",
          "description": "Float value for green component.",
          "methods": {
            "process": "drange_to_rgb_convert"
          },
          "name": "GREEN"
        },
        {
          "data_type": "float",
          "description": "Float value for blue component.",
          "methods": {
            "process": "drange_to_rgb_convert"
          },
          "name": "BLUE"
        }
      ],
      "methods": {
        "open": "drange_to_rgb_open"
      },
      "name": "converter/float-to-rgb",
      "options": {
        "members": [
          {
            "data_type": "int",
            "default": 255,
            "description": "Max value of red component. Minimum is set to zero.",
            "name": "red_max"
          },
          {
            "data_type": "int",
            "default": 255,
            "description": "Max value of green component. Minimum is set to zero.",
            "name": "green_max"
          },
          {
            "data_type": "int",
            "default": 255,
            "description": "Max value of blue component. Minimum is set to zero.",
            "name": "blue_max"
          }
        ],
        "version": 1
      },
      "out_ports": [
        {
          "data_type": "rgb",
          "description": "Float values converted to RGB.",
          "name": "OUT"
        }
      ],
      "private_data_type": "sol_converter_rgb",
      "url": "http://solettaproject.org/doc/latest/node_types/converter/float-to-rgb.html"
    },
    {
      "category": "converter",
      "description": "Receives float packets and converts to direction vector ones.",
      "in_ports": [
        {
          "data_type": "float",
          "description": "Float value for x component.",
          "methods": {
            "process": "drange_to_direction_vector_convert"
          },
          "name": "X"
        },
        {
          "data_type": "float",
          "description": "Float value for y component.",
          "methods": {
            "process": "drange_to_direction_vector_convert"
          },
          "name": "Y"
        },
        {
          "data_type": "float",
          "description": "Float value for z component.",
          "methods": {
            "process": "drange_to_direction_vector_convert"
          },
          "name": "Z"
        }
      ],
      "methods": {
        "open": "drange_to_direction_vector_open"
      },
      "name": "converter/float-to-direction-vector",
      "options": {
        "members": [
          {
            "data_type": "drange-spec",
            "default": {
              "max": "DBL_MAX",
              "min": "-DBL_MAX"
            },
            "description": "Range of output packet.",
            "name": "out_range"
          }
        ],
        "version": 1
      },
      "out_ports": [
        {
          "data_type": "direction-vector",
          "description": "Float values converted to direction vector.",
          "name": "OUT"
        }
      ],
      "private_data_type": "sol_converter_direction_vector",
      "url": "http://solettaproject.org/doc/latest/node_types/converter/float-to-direction-vector.html"
    },
    {
      "category": "converter",
      "description": "Receives a float packet and converts it to a string one. By its options, one is able to form a POSIX printf-like format string, besides entering literal prefix/suffix for that. The format string itself will be composed by flags, field width, precision and conversion specifiers given by options. The user is responsible for forming a valid string format at the end, but Soletta will prevent bad usage by not allowing '*', 'n', 'm' and such, while validing input.",
      "in_ports": [
        {
          "data_type": "float",
          "description": "Where to receive the float value to be converted.",
          "methods": {
            "process": "drange_to_string_convert"
          },
          "name": "IN"
        }
      ],
      "methods": {
        "open": "drange_to_string_open",
        "close": "irange_drange_to_string_close"
      },
      "name": "converter/float-to-string",
      "options": {
        "members": [
          {
            "data_type": "string",
            "default": "",
            "description": "(Literal) prefix to compose the final string.",
            "name": "format_prefix"
          },
          {
            "data_type": "string",
            "default": "",
            "description": "(Literal) suffix to compose the final string",
            "name": "format_suffix"
          },
          {
            "data_type": "string",
            "default": "",
            "description": "Flags to compose the final format string (combination of '#', '0', '-', ' ' and '+' characters).",
            "name": "format_flags"
          },
          {
            "data_type": "int",
            "default": 0,
            "description": "Field width specification to compose the final format string (may be negative).",
            "name": "format_field_width"
          },
          {
            "data_type": "int",
            "default": -1,
            "description": "Precision specification to compose the final format string (negative values mean no precision specified on output format string).",
            "name": "format_precision"
          },
          {
            "data_type": "string",
            "default": "f",
            "description": "Conversion specification to compose the final format string (one of 'e', 'E', 'f', 'F', 'g', 'G', 'a' or 'A')",
            "name": "format_conversion_specifier"
          }
        ],
        "version": 1
      },
      "out_ports": [
        {
          "data_type": "string",
          "description": "Float converted to string with 6 digits after decimal-point character.",
          "name": "OUT"
        }
      ],
      "private_data_type": "string_converter",
      "url": "http://solettaproject.org/doc/latest/node_types/converter/float-to-string.html"
    },
    {
      "category": "converter",
      "description": "Receives an empty packet and convert it to boolean.",
      "in_ports": [
        {
          "data_type": "any",
          "description": "Where to receive the empty packet.",
          "methods": {
            "process": "empty_to_boolean_convert"
          },
          "name": "IN"
        },
        {
          "data_type": "boolean",
          "description": "Boolean value of output when an empty packet is received.",
          "methods": {
            "process": "empty_boolean_output_set"
          },
          "name": "OUTPUT_VALUE"
        }
      ],
      "methods": {
        "open": "empty_to_boolean_open"
      },
      "name": "converter/empty-to-boolean",
      "options": {
        "members": [
          {
            "data_type": "boolean",
            "default": true,
            "description": "Boolean value of output when an empty packet is received.",
            "name": "output_value"
          }
        ],
        "version": 1
      },
      "out_ports": [
        {
          "data_type": "boolean",
          "description": "Boolean defined by OUTPUT_VALUE port or output_value option.",
          "name": "OUT"
        }
      ],
      "private_data_type": "sol_converter_boolean",
      "url": "http://solettaproject.org/doc/latest/node_types/converter/empty-to-boolean.html"
    },
    {
      "category": "converter",
      "description": "Receives an empty packet and convert it to rgb.",
      "in_ports": [
        {
          "data_type": "any",
          "description": "Where to receive the empty packet.",
          "methods": {
            "process": "empty_to_rgb_convert"
          },
          "name": "IN"
        },
        {
          "data_type": "rgb",
          "description": "RGB value of output when an empty packet is received.",
          "methods": {
            "process": "empty_rgb_output_set"
          },
          "name": "OUTPUT_VALUE"
        }
      ],
      "methods": {
        "open": "empty_to_rgb_open"
      },
      "name": "converter/empty-to-rgb",
      "options": {
        "members": [
          {
            "data_type": "rgb",
            "description": "RGB value of output when an empty packet is received.",
            "name": "output_value",
            "default": {
              "red": 255,
              "green": 255,
              "blue": 255,
              "red_max": 255,
              "green_max": 255,
              "blue_max": 255
            }
          }
        ],
        "version": 1
      },
      "out_ports": [
        {
          "data_type": "rgb",
          "description": "RGB defined by OUTPUT_VALUE port or output_value option.",
          "name": "OUT"
        }
      ],
      "private_data_type": "sol_rgb",
      "url": "http://solettaproject.org/doc/latest/node_types/converter/empty-to-rgb.html"
    },
    {
      "category": "converter",
      "description": "Receives an empty packet and convert it to byte.",
      "in_ports": [
        {
          "data_type": "any",
          "description": "Where to receive the empty packet.",
          "methods": {
            "process": "empty_to_byte_convert"
          },
          "name": "IN"
        },
        {
          "data_type": "byte",
          "description": "Byte value of output when an empty packet is received.",
          "methods": {
            "process": "empty_byte_min_value_set"
          },
          "name": "OUTPUT_VALUE"
        }
      ],
      "methods": {
        "open": "empty_to_byte_open"
      },
      "name": "converter/empty-to-byte",
      "options": {
        "members": [
          {
            "data_type": "byte",
            "default": 1,
            "description": "Byte value of output when an empty packet is received.",
            "name": "output_value"
          }
        ],
        "version": 1
      },
      "out_ports": [
        {
          "data_type": "byte",
          "description": "Byte defined by OUTPUT_VALUE port or output_value option.",
          "name": "OUT"
        }
      ],
      "private_data_type": "sol_converter_byte",
      "url": "http://solettaproject.org/doc/latest/node_types/converter/empty-to-byte.html"
    },
    {
      "category": "converter",
      "description": "Receives an empty packet and convert it to float.",
      "in_ports": [
        {
          "data_type": "any",
          "description": "Where to receive the empty packet.",
          "methods": {
            "process": "empty_to_drange_convert"
          },
          "name": "IN"
        },
        {
          "data_type": "float",
          "description": "Float value of output when an empty packet is received.",
          "methods": {
            "process": "empty_drange_value_set"
          },
          "name": "OUTPUT_VALUE"
        }
      ],
      "methods": {
        "open": "empty_to_drange_open"
      },
      "name": "converter/empty-to-float",
      "options": {
        "members": [
          {
            "data_type": "drange-spec",
            "default": {
              "max": 1,
              "min": 1,
              "step": 1
            },
            "description": "Float range and step of output when an empty packet is received.",
            "name": "output_value_spec"
          },
          {
            "data_type": "float",
            "default": 1,
            "description": "Float value of output when an empty packet is received.",
            "name": "output_value"
          }
        ],
        "version": 1
      },
      "out_ports": [
        {
          "data_type": "float",
          "description": "Float defined by OUTPUT_VALUE port or output_value option.",
          "name": "OUT"
        }
      ],
      "private_data_type": "sol_drange",
      "url": "http://solettaproject.org/doc/latest/node_types/converter/empty-to-drange.html"
    },
    {
      "category": "converter",
      "description": "Receives an empty packet and convert it to int.",
      "in_ports": [
        {
          "data_type": "any",
          "description": "Where to receive the empty packet.",
          "methods": {
            "process": "empty_to_irange_convert"
          },
          "name": "IN"
        },
        {
          "data_type": "int",
          "description": "Int value of output when an empty packet is received.",
          "methods": {
            "process": "empty_irange_value_set"
          },
          "name": "OUTPUT_VALUE"
        }
      ],
      "methods": {
        "open": "empty_to_irange_open"
      },
      "name": "converter/empty-to-int",
      "options": {
        "members": [
          {
            "data_type": "irange-spec",
            "default": {
              "max": 1,
              "min": 1,
              "step": 1
            },
            "description": "Int range and step of output when an empty packet is received.",
            "name": "output_value_spec"
          },
          {
            "data_type": "int",
            "default": 1,
            "description": "Int value of output when an empty packet is received.",
            "name": "output_value"
          }
        ],
        "version": 1
      },
      "out_ports": [
        {
          "data_type": "int",
          "description": "Int defined by OUTPUT_VALUE port or output_value option.",
          "name": "OUT"
        }
      ],
      "private_data_type": "sol_irange",
      "url": "http://solettaproject.org/doc/latest/node_types/converter/empty-to-irange.html"
    },
    {
      "category": "converter",
      "description": "Receives an empty packet and convert it to string.",
      "in_ports": [
        {
          "data_type": "any",
          "description": "Where to receive the empty packet.",
          "methods": {
            "process": "empty_to_string_convert"
          },
          "name": "IN"
        },
        {
          "data_type": "string",
          "description": "Output string sent when an empty packet is received.",
          "methods": {
            "process": "empty_string_set"
          },
          "name": "OUTPUT_VALUE"
        }
      ],
      "methods": {
        "close": "empty_to_string_close",
        "open": "empty_to_string_open"
      },
      "name": "converter/empty-to-string",
      "options": {
        "members": [
          {
            "data_type": "string",
            "default": "",
            "description": "Output string sent when an empty packet is received.",
            "name": "output_value"
          }
        ],
        "version": 1
      },
      "out_ports": [
        {
          "data_type": "string",
          "description": "String defined by OUTPUT_VALUE port or output_value option.",
          "name": "OUT"
        }
      ],
      "private_data_type": "sol_converter_string",
      "url": "http://solettaproject.org/doc/latest/node_types/converter/empty-to-string.html"
    },
    {
      "category": "converter",
      "description": "Receives an int packet and converts it to a boolean one.",
      "in_ports": [
        {
          "data_type": "int",
          "description": "Where to receive the int value to be converted.",
          "methods": {
            "process": "irange_to_boolean_convert"
          },
          "name": "IN"
        },
        {
          "data_type": "int",
          "description": "Defines minimum and maximum values of input to set output as true.",
          "methods": {
            "process": "irange_true_range_set"
          },
          "name": "TRUE_RANGE"
        }
      ],
      "methods": {
        "open": "irange_to_boolean_open"
      },
      "name": "converter/int-to-boolean",
      "options": {
        "members": [
          {
            "data_type": "irange-spec",
            "default": {
              "max": 255,
              "min": 1
            },
            "description": "Defines minimum and maximum values of input to set output as true.",
            "name": "true_range"
          }
        ],
        "version": 1
      },
      "out_ports": [
        {
          "data_type": "boolean",
          "description": "Sends true if the input packet value is in the range defined by 'min' and 'max' values or false, otherwise.",
          "name": "OUT"
        }
      ],
      "private_data_type": "sol_irange_spec",
      "url": "http://solettaproject.org/doc/latest/node_types/converter/irange-to-boolean.html"
    },
    {
      "category": "converter",
      "description": "Receives an int packet and converts it to a byte one.",
      "in_ports": [
        {
          "data_type": "int",
          "description": "Where to receive the int value to be converted.",
          "methods": {
            "process": "irange_to_byte_convert"
          },
          "name": "IN"
        }
      ],
      "name": "converter/int-to-byte",
      "out_ports": [
        {
          "data_type": "byte",
          "description": "Int converted to byte. If int was greater than 255 or less than 0 the converted value will be at these limits.",
          "name": "OUT"
        }
      ],
      "url": "http://solettaproject.org/doc/latest/node_types/converter/irange-to-byte.html"
    },
    {
      "category": "converter",
      "description": "Receives four bytes and composes them into an int. Any input port with no connections will be treated as a 0 value input.",
      "in_ports": [
        {
          "data_type": "byte",
          "description": "Array of bytes to turn into an int. Index 0 is the least significant, 3 is the most",
          "methods": {
            "connect": "irange_compose_connect",
            "process": "irange_compose"
          },
          "name": "IN[4]"
        }
      ],
      "name": "converter/int-compose",
      "out_ports": [
        {
          "data_type": "int",
          "description": "Integer composed from the four input bytes",
          "name": "OUT"
        }
      ],
      "private_data_type": "sol_converter_irange_compose",
      "url": "http://solettaproject.org/doc/latest/node_types/converter/irange-compose.html"
    },
    {
      "category": "converter",
      "description": "Receives an int packet and decomposes it into four bytes. The received int will be treated as unsigned.",
      "in_ports": [
        {
          "data_type": "int",
          "description": "Where to receive the int value to be decomposed.",
          "methods": {
            "process": "irange_decompose"
          },
          "name": "IN"
        }
      ],
      "name": "converter/int-decompose",
      "out_ports": [
        {
          "data_type": "byte",
          "description": "Int turned to bytes, index 0 is the least significant, 3 the most",
          "name": "OUT[4]"
        }
      ],
      "url": "http://solettaproject.org/doc/latest/node_types/converter/irange-decompose.html"
    },
    {
      "category": "converter",
      "description": "Receives an int packet and converts it to a floating point one.",
      "in_ports": [
        {
          "data_type": "int",
          "description": "Where to receive the int value to be converted.",
          "methods": {
            "process": "irange_to_drange_convert"
          },
          "name": "IN"
        }
      ],
      "name": "converter/int-to-float",
      "out_ports": [
        {
          "data_type": "float",
          "description": "Int converted to float. Value, min, max and step are converted.",
          "name": "OUT"
        }
      ],
      "url": "http://solettaproject.org/doc/latest/node_types/converter/irange-to-drange.html"
    },
    {
      "category": "converter",
      "description": "Receives an int packet and convert it to empty.",
      "in_ports": [
        {
          "data_type": "int",
          "description": "Where to receive the int value to be converted.",
          "methods": {
            "process": "irange_to_empty_convert"
          },
          "name": "IN"
        },
        {
          "data_type": "int",
          "description": "Int range that generates a pulse.",
          "methods": {
            "process": "irange_empty_value_set"
          },
          "name": "RANGE"
        }
      ],
      "methods": {
        "open": "irange_to_empty_open"
      },
      "name": "converter/int-to-empty",
      "options": {
        "members": [
          {
            "data_type": "irange-spec",
            "default": {
              "max": 255,
              "min": 1
            },
            "description": "Int range that generates a pulse.",
            "name": "range"
          }
        ],
        "version": 1
      },
      "out_ports": [
        {
          "data_type": "empty",
          "description": "Sends an empty packet when the input packet value is in the range defined by 'min' and 'max' values.",
          "name": "OUT"
        }
      ],
      "private_data_type": "sol_irange_spec",
      "url": "http://solettaproject.org/doc/latest/node_types/converter/irange-to-empty.html"
    },
    {
      "category": "converter",
      "description": "Receives int packets and convert to RGB.",
      "in_ports": [
        {
          "data_type": "int",
          "description": "Int value for red component.",
          "methods": {
            "process": "irange_to_rgb_convert"
          },
          "name": "RED"
        },
        {
          "data_type": "int",
          "description": "Int value for green component.",
          "methods": {
            "process": "irange_to_rgb_convert"
          },
          "name": "GREEN"
        },
        {
          "data_type": "int",
          "description": "Int value for blue component.",
          "methods": {
            "process": "irange_to_rgb_convert"
          },
          "name": "BLUE"
        }
      ],
      "methods": {
        "open": "irange_to_rgb_open"
      },
      "name": "converter/int-to-rgb",
      "options": {
        "members": [
          {
            "data_type": "int",
            "default": 255,
            "description": "Max value of red component. Minimum is set to zero.",
            "name": "red_max"
          },
          {
            "data_type": "int",
            "default": 255,
            "description": "Max value of green component. Minimum is set to zero.",
            "name": "green_max"
          },
          {
            "data_type": "int",
            "default": 255,
            "description": "Max value of blue component. Minimum is set to zero.",
            "name": "blue_max"
          }
        ],
        "version": 1
      },
      "out_ports": [
        {
          "data_type": "rgb",
          "description": "Int values converted to RGB.",
          "name": "OUT"
        }
      ],
      "private_data_type": "sol_converter_rgb",
      "url": "http://solettaproject.org/doc/latest/node_types/converter/int-to-rgb.html"
    },
    {
      "category": "converter",
      "description": "Receives direction vector packets and converts to RGB ones.",
      "in_ports": [
        {
          "data_type": "direction-vector",
          "description": "Input for direction vector packets to be converted.",
          "methods": {
            "process": "direction_vector_to_rgb_convert"
          },
          "name": "IN"
        }
      ],
      "methods": {
        "open": "direction_vector_to_rgb_open"
      },
      "name": "converter/direction-vector-to-rgb",
      "options": {
        "members": [
          {
            "data_type": "int",
            "default": 255,
            "description": "Max value of red component. Minimum is set to zero.",
            "name": "red_max"
          },
          {
            "data_type": "int",
            "default": 255,
            "description": "Max value of green component. Minimum is set to zero.",
            "name": "green_max"
          },
          {
            "data_type": "int",
            "default": 255,
            "description": "Max value of blue component. Minimum is set to zero.",
            "name": "blue_max"
          }
        ],
        "version": 1
      },
      "out_ports": [
        {
          "data_type": "rgb",
          "description": "Direction vector values converted to RGB.",
          "name": "OUT"
        }
      ],
      "private_data_type": "sol_converter_rgb",
      "url": "http://solettaproject.org/doc/latest/node_types/converter/int-to-rgb.html"
    },
    {
      "category": "converter",
      "description": "Receives int packets and converts a to direction vector one.",
      "in_ports": [
        {
          "data_type": "int",
          "description": "Int value for x component.",
          "methods": {
            "process": "irange_to_direction_vector_convert"
          },
          "name": "X"
        },
        {
          "data_type": "int",
          "description": "Int value for y component.",
          "methods": {
            "process": "irange_to_direction_vector_convert"
          },
          "name": "Y"
        },
        {
          "data_type": "int",
          "description": "Int value for z component.",
          "methods": {
            "process": "irange_to_direction_vector_convert"
          },
          "name": "Z"
        }
      ],
      "methods": {
        "open": "irange_to_direction_vector_open"
      },
      "name": "converter/int-to-direction-vector",
      "options": {
        "members": [
          {
            "data_type": "drange-spec",
            "default": {
              "max": "DBL_MAX",
              "min": "-DBL_MAX"
            },
            "description": "Range of output packet.",
            "name": "out_range"
          }
        ],
        "version": 1
      },
      "out_ports": [
        {
          "data_type": "direction-vector",
          "description": "Int values converted to direction vector.",
          "name": "OUT"
        }
      ],
      "private_data_type": "sol_converter_direction_vector",
      "url": "http://solettaproject.org/doc/latest/node_types/converter/int-to-direction-vector.html"
    },
    {
      "category": "converter",
      "description": "Receives an integer packet and converts it to a string one. By its options, one is able to form a POSIX printf-like format string, besides entering literal prefix/suffix for that. The format string itself will be composed by flags, field width, precision and conversion specifiers given by options. The user is responsible for forming a valid string format at the end, but Soletta will prevent bad usage by not allowing '*', 'n', 'm' and such, while validing input.",
      "in_ports": [
        {
          "data_type": "int",
          "description": "Where to receive the int value to be converted.",
          "methods": {
            "process": "irange_to_string_convert"
          },
          "name": "IN"
        }
      ],
      "methods": {
        "open": "irange_to_string_open",
        "close": "irange_drange_to_string_close"
      },
      "name": "converter/int-to-string",
      "options": {
        "members": [
          {
            "data_type": "string",
            "default": "",
            "description": "(Literal) prefix to compose the final string.",
            "name": "format_prefix"
          },
          {
            "data_type": "string",
            "default": "",
            "description": "(Literal) suffix to compose the final string",
            "name": "format_suffix"
          },
          {
            "data_type": "string",
            "default": "",
            "description": "Flags to compose the final format string (combination of '#', '0', '-', ' ' and '+' characters)",
            "name": "format_flags"
          },
          {
            "data_type": "int",
            "default": 0,
            "description": "Field width specification to compose the final format string (may be negative).",
            "name": "format_field_width"
          },
          {
            "data_type": "int",
            "default": -1,
            "description": "Precision specification to compose the final format string (negative values mean no precision specified on output format string).",
            "name": "format_precision"
          },
          {
            "data_type": "string",
            "default": "d",
            "description": "Conversion specification to compose the final format string (one of 'd', 'i', 'o', 'u', 'x', 'X' or 'c')",
            "name": "format_conversion_specifier"
          }
        ],
        "version": 1
      },
      "out_ports": [
        {
          "data_type": "string",
          "description": "Int converted to string.",
          "name": "OUT"
        }
      ],
      "private_data_type": "string_converter",
      "url": "http://solettaproject.org/doc/latest/node_types/converter/irange-to-string.html"
    },
    {
      "category": "converter",
      "description": "Receives RGB packets and convert to bytes.",
      "in_ports": [
        {
          "data_type": "rgb",
          "description": "RGB to be decomposed.",
          "methods": {
            "process": "rgb_to_byte_convert"
          },
          "name": "IN"
        }
      ],
      "name": "converter/rgb-to-byte",
      "out_ports": [
        {
          "data_type": "byte",
          "description": "Byte value for red component.",
          "name": "RED"
        },
        {
          "data_type": "byte",
          "description": "Byte value for green component.",
          "name": "GREEN"
        },
        {
          "data_type": "byte",
          "description": "Byte value for blue component.",
          "name": "BLUE"
        }
      ],
      "url": "http://solettaproject.org/doc/latest/node_types/converter/rgb-to-byte.html"
    },
    {
      "category": "converter",
      "description": "Receives RGB packets and convert to float values.",
      "in_ports": [
        {
          "data_type": "rgb",
          "description": "RGB to be decomposed.",
          "methods": {
            "process": "rgb_to_drange_convert"
          },
          "name": "IN"
        }
      ],
      "name": "converter/rgb-to-float",
      "out_ports": [
        {
          "data_type": "float",
          "description": "Float value for red component.",
          "name": "RED"
        },
        {
          "data_type": "float",
          "description": "Float value for green component.",
          "name": "GREEN"
        },
        {
          "data_type": "float",
          "description": "Float value for blue component.",
          "name": "BLUE"
        }
      ],
      "url": "http://solettaproject.org/doc/latest/node_types/converter/rgb-to-float.html"
    },
    {
      "category": "converter",
      "description": "Receives RGB packets and convert to int values.",
      "in_ports": [
        {
          "data_type": "rgb",
          "description": "RGB to be decomposed.",
          "methods": {
            "process": "rgb_to_irange_convert"
          },
          "name": "IN"
        }
      ],
      "name": "converter/rgb-to-int",
      "out_ports": [
        {
          "data_type": "int",
          "description": "Int value for red component.",
          "name": "RED"
        },
        {
          "data_type": "int",
          "description": "Int value for green component.",
          "name": "GREEN"
        },
        {
          "data_type": "int",
          "description": "Int value for blue component.",
          "name": "BLUE"
        }
      ],
      "url": "http://solettaproject.org/doc/latest/node_types/converter/rgb-to-int.html"
    },
    {
      "category": "converter",
      "description": "Receives RGB packets and convert to direction vector ones.",
      "in_ports": [
        {
          "data_type": "rgb",
          "description": "RGB to be converted.",
          "methods": {
            "process": "rgb_to_direction_vector_convert"
          },
          "name": "IN"
        }
      ],
      "name": "converter/rgb-to-direction-vector",
      "out_ports": [
        {
          "data_type": "direction-vector",
          "description": "Dimensional vector packet",
          "name": "OUT"
        }
      ],
      "url": "http://solettaproject.org/doc/latest/node_types/converter/rgb-to-direction-vector.html"
    },
    {
      "category": "converter",
      "description": "Receives direction vector packets and converts to bytes.",
      "in_ports": [
        {
          "data_type": "direction-vector",
          "description": "direction vector to be decomposed.",
          "methods": {
            "process": "direction_vector_to_byte_convert"
          },
          "name": "IN"
        }
      ],
      "name": "converter/direction-vector-to-byte",
      "out_ports": [
        {
          "data_type": "byte",
          "description": "Byte value for x component.",
          "name": "X"
        },
        {
          "data_type": "byte",
          "description": "Byte value for y component.",
          "name": "Y"
        },
        {
          "data_type": "byte",
          "description": "Byte value for z component.",
          "name": "Z"
        }
      ],
      "url": "http://solettaproject.org/doc/latest/node_types/converter/direction-vector-to-byte.html"
    },
    {
      "category": "converter",
      "description": "Receives direction vector packets and converts to float values.",
      "in_ports": [
        {
          "data_type": "direction-vector",
          "description": "direction vector to be decomposed.",
          "methods": {
            "process": "direction_vector_to_drange_convert"
          },
          "name": "IN"
        }
      ],
      "name": "converter/direction-vector-to-float",
      "out_ports": [
        {
          "data_type": "float",
          "description": "Float value for x component.",
          "name": "X"
        },
        {
          "data_type": "float",
          "description": "Float value for y component.",
          "name": "Y"
        },
        {
          "data_type": "float",
          "description": "Float value for z component.",
          "name": "Z"
        }
      ],
      "url": "http://solettaproject.org/doc/latest/node_types/converter/direction-vector-to-float.html"
    },
    {
      "category": "converter",
      "description": "Receives direction vector packets and converts to RGB.",
      "in_ports": [
        {
          "data_type": "direction-vector",
          "description": "direction vector to be decomposed.",
          "methods": {
            "process": "direction_vector_to_irange_convert"
          },
          "name": "IN"
        }
      ],
      "name": "converter/direction-vector-to-int",
      "out_ports": [
        {
          "data_type": "int",
          "description": "Int value for x component.",
          "name": "X"
        },
        {
          "data_type": "int",
          "description": "Int value for y component.",
          "name": "Y"
        },
        {
          "data_type": "int",
          "description": "Int value for z component.",
          "name": "Z"
        }
      ],
      "url": "http://solettaproject.org/doc/latest/node_types/converter/direction-vector-to-int.html"
    },
    {
      "category": "converter",
      "description": "Receives a string packet and convert it to boolean.",
      "in_ports": [
        {
          "data_type": "string",
          "description": "Where to receive the string to be converted.",
          "methods": {
            "process": "string_to_boolean_convert"
          },
          "name": "IN"
        }
      ],
      "name": "converter/string-to-boolean",
      "out_ports": [
        {
          "data_type": "boolean",
          "description": "Sends true if the received string is 'true' and false, if 'false'. It ignores case. If that string is different from those, no packet is sent.",
          "name": "OUT"
        }
      ],
      "url": "http://solettaproject.org/doc/latest/node_types/converter/string-to-boolean.html"
    },
    {
      "category": "converter",
      "description": "Receives a string packet and convert it to byte.",
      "in_ports": [
        {
          "data_type": "string",
          "description": "Where to receive the string to be converted.",
          "methods": {
            "process": "string_to_byte_convert"
          },
          "name": "IN"
        }
      ],
      "name": "converter/string-to-byte",
      "out_ports": [
        {
          "data_type": "byte",
          "description": "Sends the byte-converted value on success. It does not send anything if a valid byte can't be parsed. The input value is expected to be on base 16 and may include '0x' prefix.",
          "name": "OUT"
        }
      ],
      "url": "http://solettaproject.org/doc/latest/node_types/converter/string-to-byte.html"
    },
    {
      "category": "converter",
      "description": "Receives a string packet and convert it to float.",
      "in_ports": [
        {
          "data_type": "string",
          "description": "Where to receive the string to be converted.",
          "methods": {
            "process": "string_to_drange_convert"
          },
          "name": "IN"
        }
      ],
      "name": "converter/string-to-float",
      "out_ports": [
        {
          "data_type": "float",
          "description": "Sends the float-converted value on success. It does not send anything if a valid number can't be parsed.",
          "name": "OUT"
        }
      ],
      "url": "http://solettaproject.org/doc/latest/node_types/converter/string-to-float.html"
    },
    {
      "category": "converter",
      "description": "Receives a string packet and sends an empty packet.",
      "in_ports": [
        {
          "data_type": "string",
          "description": "Where to receive the string.",
          "methods": {
            "process": "string_to_empty_convert"
          },
          "name": "IN"
        }
      ],
      "name": "converter/string-to-empty",
      "out_ports": [
        {
          "data_type": "empty",
          "description": "Sends an empty packet when any string is received.",
          "name": "OUT"
        }
      ],
      "url": "http://solettaproject.org/doc/latest/node_types/converter/string-to-empty.html"
    },
    {
      "category": "converter",
      "description": "Receives a string packet and convert it to int.",
      "in_ports": [
        {
          "data_type": "string",
          "description": "Where to receive the string to be converted.",
          "methods": {
            "process": "string_to_irange_convert"
          },
          "name": "IN"
        }
      ],
      "name": "converter/string-to-int",
      "out_ports": [
        {
          "data_type": "int",
          "description": "Sends the interger-converted value on success. It does not send anything if a valid number can't be parsed.",
          "name": "OUT"
        }
      ],
      "url": "http://solettaproject.org/doc/latest/node_types/converter/string-to-int.html"
    },
    {
      "category": "converter",
      "description": "Extracts error code and message string from an error packet.",
      "in_ports": [
        {
          "data_type": "error",
          "description": "Where to receive the error to be converted.",
          "methods": {
            "process": "error_convert"
          },
          "name": "IN"
        }
      ],
      "name": "converter/error",
      "out_ports": [
        {
          "data_type": "int",
          "description": "Code extracted from error packet",
          "name": "CODE"
        },
        {
          "data_type": "string",
          "description": "Message extracted from error packet",
          "name": "MESSAGE"
        }
      ],
      "url": "http://solettaproject.org/doc/latest/node_types/converter/error.html"
    },
    {
      "category": "converter",
      "description": "Receives boolean packets and convert these bits to a byte.",
      "in_ports": [
        {
          "data_type": "boolean",
          "description": "Array of bits to turn into a byte. Index 0 is the least significant, 7 is the most",
          "methods": {
            "connect": "bits_to_byte_connect",
            "process": "bits_to_byte_convert"
          },
          "name": "IN[8]",
          "required": true
        }
      ],
      "name": "converter/bits-to-byte",
      "out_ports": [
        {
          "data_type": "byte",
          "description": "Sends the byte-converted value from bits received.",
          "name": "OUT",
          "required": true
        }
      ],
      "private_data_type": "sol_converter_bits",
      "url": "http://solettaproject.org/doc/latest/node_types/converter/bits-to-byte.html"
    },
    {
      "category": "converter",
      "description": "Receives a string packet and converts it to a blob (sub-type SOL_BLOB_TYPE_DEFAULT) one.",
      "in_ports": [
        {
          "data_type": "string",
          "description": "Where to receive the string value to be converted.",
          "methods": {
            "process": "string_to_blob_convert"
          },
          "name": "IN"
        }
      ],
      "methods": {
        "open": "string_to_blob_open"
      },
      "name": "converter/string-to-blob",
      "options": {
        "members": [
          {
            "data_type": "boolean",
            "default": true,
            "description": "Include the terminating NULL byte (\\0) in the blob size.",
            "name": "include_null_terminator"
          }
        ],
        "version": 1
      },
      "out_ports": [
        {
          "data_type": "blob",
          "description": "Sends a blob packet with the contents of the string received in the port IN.",
          "name": "OUT"
        }
      ],
      "private_data_type": "sol_converter_string_blob",
      "url": "http://solettaproject.org/doc/latest/node_types/converter/string-to-blob.html"
    },
    {
      "category": "converter",
      "description": "Receives a blob packet and try to convert it to a string by scanning up to the first null byte (\\0) or the end of the blob.",
      "in_ports": [
        {
          "data_type": "blob",
          "description": "Where to receive the blob value to be converted.",
          "methods": {
            "process": "blob_to_string_convert"
          },
          "name": "IN"
        }
      ],
      "name": "converter/blob-to-string",
      "out_ports": [
        {
          "data_type": "string",
          "description": "Sends a string packet with the contents of the blob received in the port IN, up to the first null byte (\\0) or the end of the blob.",
          "name": "OUT"
        }
      ],
      "url": "http://solettaproject.org/doc/latest/node_types/converter/blob-to-string.html"
    },
    {
      "category": "converter",
      "description": "Receives a timestamp packet and converts it to a string one.",
      "in_ports": [
        {
          "data_type": "timestamp",
          "description": "Where to receive the timestamp to be converted.",
          "methods": {
            "process": "timestamp_to_string_convert"
          },
          "name": "IN"
        }
      ],
      "methods": {
        "close": "timestamp_close",
        "open": "timestamp_open"
      },
      "name": "converter/timestamp-to-string",
      "options": {
        "members": [
          {
            "data_type": "string",
            "default": "%Y-%m-%dT%H:%M:%S%Z",
            "description": "Format string to be used in the conversion. The syntax is the same as strftime()'s.",
            "name": "format"
          }
        ],
        "version": 1
      },
      "out_ports": [
        {
          "data_type": "string",
          "description": "Packet with formatted date and time.",
          "name": "OUT"
        }
      ],
      "private_data_type": "sol_converter_string",
      "url": "http://solettaproject.org/doc/latest/node_types/converter/timestamp-to-string.html"
    },
    {
      "category": "converter",
      "description": "Receives a string packet and converts it to a timestamp one.",
      "in_ports": [
        {
          "data_type": "string",
          "description": "Where to receive the string to be converted.",
          "methods": {
            "process": "string_to_timestamp_convert"
          },
          "name": "IN"
        }
      ],
      "methods": {
        "close": "timestamp_close",
        "open": "timestamp_open"
      },
      "name": "converter/string-to-timestamp",
      "options": {
        "members": [
          {
            "data_type": "string",
            "default": "%Y-%m-%dT%H:%M:%S",
            "description": "Format string to be used in the conversion. The syntax is the same as strftime()'s.",
            "name": "format"
          }
        ],
        "version": 1
      },
      "out_ports": [
        {
          "data_type": "timestamp",
          "description": "Packet with timestamp converted from string received on port IN using format set on options.",
          "name": "OUT"
        }
      ],
      "private_data_type": "sol_converter_string",
      "url": "http://solettaproject.org/doc/latest/node_types/converter/string-to-timestamp.html"
    },
    {
      "category": "converter",
      "description": "Receives a blob packet, validates it and converts it to a JSON object.",
      "in_ports": [
        {
          "data_type": "blob",
          "description": "Where to receive the blob to be converted.",
          "methods": {
            "process": "blob_to_json_object_process"
          },
          "name": "IN"
        }
      ],
      "name": "converter/blob-to-json-object",
      "out_ports": [
        {
          "data_type": "json-object",
          "description": "Packet with JSON object converted from blob received on port IN.",
          "name": "OUT"
        }
      ],
      "url": "http://solettaproject.org/doc/latest/node_types/converter/blob-to-json-object.html"
    },
    {
      "category": "converter",
      "description": "Receives a json packet and converts it to a blob.",
      "in_ports": [
        {
          "data_type": "json-object",
          "description": "Where to receive the JSON object to be converted.",
          "methods": {
            "process": "json_object_to_blob_process"
          },
          "name": "IN"
        }
      ],
      "name": "converter/json-object-to-blob",
      "out_ports": [
        {
          "data_type": "blob",
          "description": "Packet with blob converted from JSON object received on port IN.",
          "name": "OUT"
        }
      ],
      "url": "http://solettaproject.org/doc/latest/node_types/converter/json-object-to-blob.html"
    },
    {
      "category": "converter",
      "description": "Receives a blob packet, validates it and converts it to a JSON array.",
      "in_ports": [
        {
          "data_type": "blob",
          "description": "Where to receive the blob to be converted.",
          "methods": {
            "process": "blob_to_json_array_process"
          },
          "name": "IN"
        }
      ],
      "name": "converter/blob-to-json-array",
      "out_ports": [
        {
          "data_type": "json-array",
          "description": "Packet with JSON array converted from blob received on port IN.",
          "name": "OUT"
        }
      ],
      "url": "http://solettaproject.org/doc/latest/node_types/converter/blob-to-json-array.html"
    },
    {
      "category": "converter",
      "description": "Receives a json packet and converts it to a blob.",
      "in_ports": [
        {
          "data_type": "json-array",
          "description": "Where to receive the JSON array to be converted.",
          "methods": {
            "process": "json_array_to_blob_process"
          },
          "name": "IN"
        }
      ],
      "name": "converter/json-array-to-blob",
      "out_ports": [
        {
          "data_type": "blob",
          "description": "Packet with blob converted from JSON array received on port IN.",
          "name": "OUT"
        }
      ],
      "url": "http://solettaproject.org/doc/latest/node_types/converter/json-array-to-blob.html"
    },
    {
      "category": "converter",
      "description": "Receives a string packet, validates it and converts it to a JSON object.",
      "in_ports": [
        {
          "data_type": "string",
          "description": "Where to receive the string value to be converted.",
          "methods": {
            "process": "string_to_json_object_convert"
          },
          "name": "IN"
        }
      ],
      "name": "converter/string-to-json-object",
      "out_ports": [
        {
          "data_type": "json-object",
          "description": "Packet with JSON object converted from string received on port IN.",
          "name": "OUT"
        }
      ],
      "private_data_type": "sol_converter_string_blob",
      "url": "http://solettaproject.org/doc/latest/node_types/converter/string-to-json-object.html"
    },
    {
      "category": "converter",
      "description": "Receives a string packet, validates it and converts it to a JSON array.",
      "in_ports": [
        {
          "data_type": "string",
          "description": "Where to receive the string value to be converted.",
          "methods": {
            "process": "string_to_json_array_convert"
          },
          "name": "IN"
        }
      ],
      "name": "converter/string-to-json-array",
      "out_ports": [
        {
          "data_type": "json-array",
          "description": "Packet with JSON array converted from string received on port IN.",
          "name": "OUT"
        }
      ],
      "private_data_type": "sol_converter_string_blob",
      "url": "http://solettaproject.org/doc/latest/node_types/converter/string-to-json-array.html"
    }
  ]
}
